refV = 3948
0,  8.19,  3.50,  3904.50,  2.94 
1,  42.94,  41.94,  3904.81,  3.12 
2,  81.81,  79.81,  3904.50,  3.50 
3,  118.56,  119.44,  3906.62,  3.56 
4,  159.12,  158.81,  3904.56,  3.62 
5,  198.62,  198.81,  3905.19,  3.25 
6,  240.31,  236.88,  3906.88,  2.88 
7,  279.56,  276.88,  3904.75,  3.44 
8,  320.31,  316.38,  3908.69,  4.12 
9,  361.00,  356.62,  3905.31,  3.25 
10,  398.62,  394.94,  3908.25,  3.00 
11,  437.25,  428.38,  3907.69,  2.75 
12,  477.31,  445.94,  3908.00,  3.69 
13,  516.44,  460.69,  3906.19,  4.12 
14,  556.88,  470.06,  3907.31,  3.81 
15,  594.50,  478.19,  3906.50,  3.56 
16,  634.75,  484.56,  3907.31,  4.19 
17,  673.81,  490.12,  3904.94,  4.31 
18,  715.69,  494.56,  3908.19,  8.94 
19,  753.56,  497.62,  3905.38,  9.56 
20,  794.00,  503.19,  3906.31,  14.44 
21,  831.94,  506.38,  3906.94,  17.94 
22,  870.38,  508.81,  3908.12,  20.12 
23,  906.69,  513.25,  3907.31,  23.75 
24,  944.75,  514.75,  3908.19,  27.19 
25,  987.12,  517.00,  3905.88,  29.88 
26,  1030.81,  519.69,  3906.88,  34.06 
27,  1068.38,  522.44,  3903.88,  36.75 
28,  1109.88,  523.44,  3905.12,  41.25 
29,  1149.44,  525.62,  3900.94,  43.88 
30,  1188.56,  527.69,  3907.38,  47.38 
31,  1227.75,  529.56,  3906.62,  49.94 
32,  1267.38,  531.12,  3909.69,  54.88 
33,  1303.44,  533.31,  3906.88,  58.19 
34,  1342.69,  535.06,  3908.06,  61.38 
35,  1384.75,  535.62,  3907.69,  64.56 
36,  1428.00,  537.69,  3907.94,  68.69 
37,  1464.75,  539.00,  3908.06,  72.00 
38,  1505.38,  539.81,  3906.62,  75.69 
39,  1544.06,  540.19,  3904.50,  78.12 
40,  1584.19,  541.88,  3906.12,  82.44 
41,  1623.12,  543.31,  3906.94,  85.75 
42,  1663.12,  543.81,  3909.50,  89.56 
43,  1698.81,  547.06,  3907.88,  92.81 
44,  1737.56,  548.75,  3908.56,  96.44 
45,  1775.75,  549.31,  3907.94,  99.56 
46,  1814.69,  547.38,  3909.38,  103.69 
47,  1855.06,  545.06,  3908.19,  106.69 
48,  1899.19,  552.12,  3909.31,  110.75 
49,  1938.94,  552.25,  3907.00,  113.00 
50,  1979.62,  554.06,  3910.00,  117.88 
51,  2017.81,  554.12,  3907.12,  120.12 
52,  2058.38,  555.06,  3910.00,  124.25 
53,  2093.75,  564.31,  3908.88,  128.00 
54,  2134.69,  562.38,  3909.44,  132.38 
55,  2170.62,  560.25,  3909.44,  134.94 
56,  2210.88,  560.31,  3909.56,  138.69 
57,  2250.50,  559.44,  3908.62,  142.06 
58,  2293.31,  561.56,  3910.00,  145.44 
59,  2333.88,  561.44,  3909.56,  149.06 
60,  2373.19,  562.06,  3911.12,  152.50 
61,  2411.00,  563.06,  3910.25,  155.31 
62,  2450.00,  563.50,  3911.19,  159.31 
63,  2484.94,  564.25,  3911.12,  162.75 
64,  2523.94,  565.00,  3911.94,  166.62 
65,  2565.25,  566.31,  3910.62,  169.88 
66,  2604.75,  566.94,  3909.00,  173.31 
67,  2646.44,  567.69,  3909.88,  177.56 
68,  2688.94,  569.31,  3908.50,  182.12 
69,  2728.56,  568.50,  3908.00,  185.12 
70,  2768.06,  569.31,  3910.31,  188.25 
71,  2805.56,  570.44,  3912.38,  191.75 
72,  2844.06,  570.12,  3912.31,  195.19 
73,  2880.62,  570.81,  3914.19,  199.69 
74,  2919.56,  572.06,  3914.38,  202.19 
75,  2960.75,  572.00,  3913.00,  205.81 
76,  3004.88,  573.56,  3912.50,  209.06 
77,  3041.81,  573.62,  3909.94,  213.75 
78,  3083.75,  574.88,  3912.06,  217.31 
79,  3123.56,  574.88,  3911.44,  220.56 
80,  3161.56,  576.25,  3910.50,  222.81 
81,  3200.81,  575.94,  3912.12,  227.88 
82,  3239.44,  577.12,  3912.19,  230.62 
83,  3278.06,  577.56,  3912.25,  236.81 
84,  3315.94,  578.00,  3910.62,  237.06 
85,  3355.44,  578.00,  3912.12,  240.81 
86,  3394.88,  578.06,  3910.56,  245.44 
87,  3434.50,  577.75,  3911.06,  249.19 
88,  3474.50,  577.06,  3909.94,  255.25 
89,  3515.25,  577.62,  3910.75,  256.50 
90,  3555.38,  583.69,  3910.62,  259.94 
91,  3590.56,  585.12,  3907.88,  263.06 
92,  3633.00,  584.62,  3911.00,  266.12 
93,  3671.38,  583.75,  3914.31,  269.94 
94,  3712.44,  585.25,  3913.06,  273.88 
95,  3751.88,  584.81,  3914.06,  277.56 
96,  3794.19,  585.81,  3913.50,  281.50 
97,  3832.19,  585.69,  3913.44,  284.69 
98,  3870.81,  585.81,  3910.94,  287.75 
99,  3897.56,  585.56,  3914.12,  290.50 
100,  3898.50,  583.94,  3913.19,  290.25 
