refV = 3948
0,  6.00,  7.75,  3738.31,  3402.62 
1,  43.50,  46.38,  3739.88,  3401.94 
2,  80.75,  85.75,  3741.06,  3401.31 
3,  119.75,  123.38,  3741.12,  3401.81 
4,  156.44,  164.38,  3741.69,  3401.56 
5,  196.06,  202.12,  3742.31,  3401.31 
6,  240.81,  243.06,  3742.44,  3402.56 
7,  280.12,  281.00,  3741.94,  3400.38 
8,  318.81,  323.06,  3743.44,  3401.38 
9,  359.19,  361.31,  3743.62,  3401.31 
10,  398.50,  401.06,  3742.25,  3401.12 
11,  436.50,  440.12,  3743.50,  3400.38 
12,  476.38,  480.44,  3741.75,  3400.31 
13,  514.31,  523.69,  3741.56,  3398.00 
14,  553.25,  561.75,  3741.69,  3400.31 
15,  592.38,  600.44,  3738.75,  3396.62 
16,  631.56,  639.38,  3738.69,  3396.81 
17,  672.19,  677.38,  3738.25,  3394.94 
18,  713.19,  717.25,  3736.69,  3394.06 
19,  752.75,  756.31,  3734.19,  3391.75 
20,  794.31,  796.38,  3732.81,  3390.75 
21,  831.44,  834.25,  3727.00,  3385.62 
22,  870.56,  874.62,  3721.56,  3380.50 
23,  906.19,  913.31,  3708.12,  3367.81 
24,  943.06,  953.00,  3675.81,  3338.00 
25,  979.94,  991.00,  3484.12,  3162.69 
26,  1024.12,  1031.31,  3012.50,  2733.81 
27,  1065.81,  1070.56,  2549.81,  2311.81 
28,  1110.56,  1108.94,  2115.81,  1916.38 
29,  1147.19,  1147.56,  1713.88,  1551.69 
30,  1188.75,  1187.06,  1352.12,  1221.88 
31,  1225.19,  1225.88,  1041.88,  932.38 
32,  1264.00,  1265.62,  771.12,  685.44 
33,  1301.50,  1304.81,  551.38,  484.50 
34,  1338.00,  1344.19,  378.62,  326.62 
35,  1376.31,  1382.12,  251.12,  210.69 
36,  1414.88,  1422.75,  161.00,  130.56 
37,  1456.81,  1461.00,  101.44,  75.94 
38,  1505.12,  1501.38,  61.81,  41.62 
39,  1543.38,  1540.50,  35.75,  19.75 
40,  1583.56,  1580.12,  22.25,  7.12 
41,  1621.44,  1618.25,  16.44,  5.19 
42,  1659.88,  1658.00,  12.06,  6.69 
43,  1697.44,  1698.69,  10.31,  5.56 
44,  1733.62,  1738.44,  10.56,  5.25 
45,  1772.12,  1776.62,  9.62,  5.06 
46,  1810.38,  1813.94,  10.06,  4.75 
47,  1854.62,  1851.00,  11.06,  6.12 
48,  1895.31,  1896.06,  10.56,  5.62 
49,  1937.38,  1934.81,  10.56,  6.38 
50,  1976.62,  1973.38,  10.31,  4.44 
51,  2017.75,  2012.62,  10.88,  6.94 
52,  2054.69,  2052.00,  11.06,  5.75 
53,  2091.44,  2097.19,  10.44,  5.38 
54,  2128.81,  2135.25,  11.06,  5.19 
55,  2167.88,  2172.31,  10.50,  4.38 
56,  2206.19,  2211.50,  11.31,  4.50 
57,  2249.56,  2249.50,  12.12,  7.38 
58,  2289.62,  2289.88,  11.00,  4.75 
59,  2331.00,  2328.81,  11.06,  5.31 
60,  2369.38,  2367.38,  13.19,  5.19 
61,  2406.25,  2405.94,  13.06,  5.12 
62,  2442.12,  2445.31,  13.12,  4.94 
63,  2488.75,  2484.62,  13.12,  5.94 
64,  2524.81,  2523.88,  13.62,  5.81 
65,  2563.38,  2563.69,  12.38,  5.50 
66,  2601.19,  2603.56,  12.69,  5.00 
67,  2644.06,  2642.25,  12.06,  4.88 
68,  2685.38,  2682.50,  11.81,  6.25 
69,  2726.00,  2721.38,  11.19,  5.62 
70,  2765.06,  2760.56,  13.75,  5.06 
71,  2802.00,  2799.50,  15.88,  5.25 
72,  2839.69,  2839.25,  15.62,  5.62 
73,  2881.50,  2877.50,  16.19,  5.88 
74,  2920.44,  2918.56,  16.81,  6.56 
75,  2959.56,  2956.19,  13.94,  5.75 
76,  3000.50,  2996.62,  16.06,  6.06 
77,  3039.75,  3035.88,  13.62,  5.38 
78,  3079.94,  3075.06,  14.38,  4.94 
79,  3120.19,  3114.88,  13.19,  4.88 
80,  3159.25,  3153.81,  14.06,  4.81 
81,  3198.62,  3192.69,  14.56,  6.19 
82,  3237.12,  3233.62,  15.62,  7.00 
83,  3275.56,  3272.31,  14.62,  5.94 
84,  3312.12,  3310.25,  14.81,  5.69 
85,  3352.88,  3348.25,  15.25,  5.62 
86,  3390.38,  3387.19,  15.50,  4.25 
87,  3432.25,  3425.19,  15.12,  5.38 
88,  3473.19,  3469.44,  14.94,  5.69 
89,  3513.38,  3508.75,  14.69,  6.12 
90,  3551.69,  3547.38,  13.69,  5.31 
91,  3589.81,  3587.06,  13.12,  5.19 
92,  3629.88,  3627.06,  15.25,  4.88 
93,  3667.88,  3667.88,  15.81,  4.81 
94,  3707.81,  3707.50,  18.38,  5.88 
95,  3749.88,  3744.44,  16.38,  5.62 
96,  3789.44,  3785.50,  16.94,  5.56 
97,  3831.19,  3824.75,  17.62,  6.12 
98,  3869.31,  3864.00,  18.38,  5.19 
99,  3907.06,  3902.88,  17.19,  5.94 
100,  3928.94,  3919.38,  17.38,  6.81 
