refV = 3943
0,  8.50,  8.88,  3907.69,  3.94 
1,  42.81,  44.38,  3905.69,  4.56 
2,  75.81,  82.62,  3907.44,  4.56 
3,  115.12,  119.62,  3908.38,  4.62 
4,  154.19,  161.06,  3906.50,  4.31 
5,  194.00,  199.38,  3905.75,  3.94 
6,  237.62,  239.38,  3907.81,  3.75 
7,  276.12,  278.06,  3908.44,  4.31 
8,  315.00,  318.38,  3909.69,  3.44 
9,  356.38,  358.69,  3909.00,  4.19 
10,  395.56,  396.75,  3909.19,  3.81 
11,  433.31,  436.31,  3908.88,  2.94 
12,  473.50,  479.31,  3908.00,  3.69 
13,  511.25,  520.00,  3908.81,  4.12 
14,  551.06,  558.31,  3908.38,  4.38 
15,  589.06,  597.06,  3909.31,  5.06 
16,  628.75,  634.94,  3908.19,  3.69 
17,  670.62,  675.50,  3908.12,  5.44 
18,  710.31,  713.94,  3909.62,  4.25 
19,  751.62,  753.88,  3909.38,  4.88 
20,  790.81,  792.12,  3910.25,  3.94 
21,  829.00,  832.00,  3908.06,  2.56 
22,  866.81,  870.88,  3910.38,  3.94 
23,  904.00,  909.06,  3908.94,  4.25 
24,  940.56,  949.50,  3910.50,  4.50 
25,  977.12,  986.88,  3909.62,  4.12 
26,  1020.31,  1028.19,  3909.81,  3.38 
27,  1065.19,  1067.88,  3910.94,  4.44 
28,  1108.94,  1108.25,  3907.31,  4.44 
29,  1147.75,  1147.19,  3894.19,  11.19 
30,  1186.69,  1185.62,  3861.88,  39.69 
31,  1223.69,  1224.94,  3803.50,  98.56 
32,  1263.25,  1263.44,  3663.25,  219.19 
33,  1301.00,  1303.62,  3396.50,  456.19 
34,  1336.38,  1342.69,  2920.38,  875.38 
35,  1376.12,  1381.06,  2166.00,  1539.00 
36,  1413.75,  1420.50,  1100.25,  2475.94 
37,  1460.56,  1459.69,  107.94,  3348.12 
38,  1503.31,  1498.75,  68.00,  3384.19 
39,  1542.12,  1539.31,  56.88,  3392.88 
40,  1581.88,  1578.12,  51.12,  3396.81 
41,  1619.56,  1617.62,  53.56,  3399.69 
42,  1657.50,  1657.06,  52.50,  3400.62 
43,  1694.19,  1696.50,  52.31,  3399.81 
44,  1730.94,  1736.25,  50.69,  3401.88 
45,  1768.62,  1774.25,  50.00,  3400.94 
46,  1808.12,  1813.25,  51.62,  3401.81 
47,  1851.12,  1849.31,  50.19,  3401.62 
48,  1892.94,  1890.88,  49.56,  3401.06 
49,  1934.56,  1933.25,  50.38,  3402.44 
50,  1975.56,  1972.06,  50.62,  3401.88 
51,  2013.06,  2011.06,  50.62,  3401.19 
52,  2053.19,  2053.81,  51.50,  3400.56 
53,  2088.12,  2096.00,  50.25,  3402.75 
54,  2126.75,  2133.19,  50.94,  3401.69 
55,  2164.31,  2170.56,  50.44,  3402.25 
56,  2204.38,  2209.75,  51.44,  3402.06 
57,  2247.50,  2248.06,  51.50,  3401.69 
58,  2287.25,  2287.06,  50.44,  3402.00 
59,  2330.38,  2328.12,  53.00,  3401.06 
60,  2368.12,  2366.25,  54.69,  3400.62 
61,  2402.62,  2402.88,  54.00,  3400.44 
62,  2440.81,  2443.94,  53.69,  3400.81 
63,  2482.44,  2482.12,  52.00,  3403.25 
64,  2522.31,  2522.62,  53.38,  3402.19 
65,  2560.56,  2563.06,  53.94,  3402.62 
66,  2599.75,  2602.62,  53.44,  3402.31 
67,  2641.88,  2641.69,  53.19,  3401.94 
68,  2683.12,  2680.50,  52.25,  3401.88 
69,  2724.44,  2720.62,  52.50,  3401.94 
70,  2764.00,  2759.25,  56.25,  3401.25 
71,  2799.69,  2798.44,  55.88,  3401.50 
72,  2838.81,  2837.69,  56.25,  3401.56 
73,  2877.88,  2876.88,  56.81,  3401.62 
74,  2917.06,  2916.00,  57.19,  3402.12 
75,  2958.75,  2956.38,  57.25,  3402.00 
76,  2995.94,  2994.19,  55.75,  3401.62 
77,  3038.44,  3035.25,  55.25,  3401.56 
78,  3077.62,  3073.88,  55.06,  3401.00 
79,  3119.00,  3114.25,  55.19,  3401.44 
80,  3158.38,  3153.44,  56.19,  3401.81 
81,  3194.81,  3192.12,  56.75,  3401.06 
82,  3234.38,  3230.56,  56.44,  3403.31 
83,  3272.44,  3270.56,  57.25,  3401.44 
84,  3309.94,  3308.50,  56.38,  3401.62 
85,  3351.06,  3349.44,  57.88,  3402.31 
86,  3388.75,  3386.06,  57.06,  3401.31 
87,  3430.56,  3424.44,  57.06,  3400.81 
88,  3469.81,  3465.19,  55.94,  3401.38 
89,  3510.00,  3506.31,  56.50,  3400.62 
90,  3551.19,  3546.62,  56.50,  3402.38 
91,  3588.81,  3586.38,  55.12,  3401.69 
92,  3626.56,  3624.94,  55.62,  3401.44 
93,  3667.12,  3668.56,  57.81,  3403.06 
94,  3705.25,  3706.06,  58.25,  3402.69 
95,  3750.06,  3745.44,  59.44,  3400.81 
96,  3786.50,  3783.69,  59.19,  3401.44 
97,  3827.94,  3822.94,  59.38,  3401.50 
98,  3869.19,  3864.12,  60.44,  3401.31 
99,  3905.31,  3901.50,  59.19,  3402.06 
100,  3928.12,  3919.25,  59.19,  3402.25 
